{
    "data": [
        {
            "employeeNumber": "10",
            "firstName": "Susan",
            "middleName": null,
            "lastName": "Perez",
            "displayName": "Donna Hill",
            "email": "joseph.ramirez94@outlook.com",
            "city": "San Antonio",
            "countryCode": "IN",
            "image": {
                "fileName": null,
                "thumbs": {}
            },
            "jobTitle": {
                "identifier": "99b581e2-3933-4534-bfd5-2e53aac4f4cb",
                "title": "Java Developer"
            },
            "secondaryJobTitle": null,
            "reportsTo": {
                "id": "6b153a31-7017-47f3-ba01-4f8a9257b5f1",
                "firstName": "Thomas",
                "lastName": "Robinson",
                "email": "susan.miller33@yahoo.com"
            },
            "l2Manager": {
                "id": "c5e1a9ee-3753-4a32-aaa1-0a31c5d30c74",
                "firstName": "Michael",
                "lastName": "Johnson",
                "email": "paul.nguyen34@outlook.com"
            },
            "dottedLineManager": {
                "id": null,
                "firstName": null,
                "lastName": null,
                "email": null
            },
            "contingentType": {
                "id": "51E6875B-2E54-42E8-9794-87B675584F80",
                "name": "Contract"
            },
            "timeType": 1,
            "workerType": 2,
            "isPrivate": false,
            "isProfileComplete": true,
            "maritalStatus": 0,
            "marriageDate": null,
            "gender": 1,
            "joiningDate": "2019-01-01T00:00:00Z",
            "professionalSummary": null,
            "dateOfBirth": "1986-01-01T00:00:00Z",
            "resignationSubmittedDate": null,
            "exitDate": null,
            "employmentStatus": 0,
            "accountStatus": 1,
            "invitationStatus": 1,
            "exitStatus": 0,
            "exitType": 0,
            "exitReason": null,
            "personalEmail": null,
            "workPhone": null,
            "homePhone": null,
            "mobilePhone": "706-706-6506",
            "bloodGroup": 0,
            "attendanceNumber": "213ASD",
            "probationEndDate": "2020-01-01T00:00:00Z",
            "currentAddress": null,
            "permanentAddress": null,
            "relations": [],
            "educationDetails": [],
            "experienceDetails": [],
            "customFields": [
                {
                    "id": "2f1f2bd4-368c-4b3e-bd8c-7d952c9e761b",
                    "title": "Custom Field",
                    "type": "MultiDropdown",
                    "value": null
                },
                {
                    "id": "c82399d3-db19-47a8-a213-542fc5629bf9",
                    "title": "[New Field]",
                    "type": "TextBox",
                    "value": null
                },
                {
                    "id": "39217c59-24a2-4dda-98e6-b90b0f69c27a",
                    "title": "ATTENDANCE NUMBER",
                    "type": "TextBox",
                    "value": null
                },
                {
                    "id": "f54573a9-33fb-4eae-8c64-5caabf39e12c",
                    "title": "NOTICE PERIOD",
                    "type": "TextArea",
                    "value": null
                },
                {
                    "id": "b7c9a7e0-cfb2-456f-ac7b-05a2a1514341",
                    "title": "multidrop",
                    "type": "MultiDropdown",
                    "value": null
                },
                {
                    "id": "6fa1ee1d-97cf-4745-ae28-46746fc8f232",
                    "title": "aasas",
                    "type": "TextBox",
                    "value": null
                }
            ],
            "groups": [
                {
                    "id": "db76d978-8722-4e9a-9415-94f5bb523810",
                    "title": "Revita Pvt Ltd",
                    "groupType": 1
                },
                {
                    "id": "5d33beac-c915-481f-b539-c1e9c12d111e",
                    "title": "Dept",
                    "groupType": 2
                },
                {
                    "id": "93aca2bc-1c6f-45de-98e3-047f3d07d718",
                    "title": "Arunachal Pradesh",
                    "groupType": 3
                },
                {
                    "id": "a133a9ca-0876-4bb0-b90b-aa13a2fc39bd",
                    "title": "Flexi Benefit Plan",
                    "groupType": 5
                },
                {
                    "id": "9873b4ee-097a-43d7-b55c-7663fd989387",
                    "title": "LE",
                    "groupType": 9
                }
            ],
            "leavePlanInfo": {
                "identifier": "6bf450ff-2c9b-42e4-9715-4a1a626a1857",
                "title": "Leave"
            },
            "bandInfo": null,
            "payGradeInfo": null,
            "shiftPolicyInfo": {
                "identifier": "e832b29d-9670-4c41-8929-35a8c5d99551",
                "title": "General Shift"
            },
            "weeklyOffPolicyInfo": {
                "identifier": "3d7e5863-5968-49da-be53-51623a8c47c8",
                "title": "General Weekly off's"
            },
            "captureSchemeInfo": {
                "identifier": "250df970-5c77-4fda-90cd-a5445b321aab",
                "title": "AWE"
            },
            "trackingPolicyInfo": null,
            "expensePolicyInfo": {
                "identifier": "9bdeaea2-4727-4453-a901-0b41d1714272",
                "title": "Sr. Policy"
            },
            "overtimePolicyInfo": null,
            "id": "39663c6a-d8d6-49e2-aabd-a366a66fb2c2"
        },
        {
            "employeeNumber": "50",
            "firstName": "Jessica",
            "middleName": null,
            "lastName": "King",
            "displayName": "James Smith",
            "email": "matthew.allen4@gmail.com",
            "city": "Fort Worth",
            "countryCode": "IN",
            "image": {
                "fileName": null,
                "thumbs": {}
            },
            "jobTitle": {
                "identifier": "fe75fa73-a7f7-4606-8356-5404b1529f5d",
                "title": "Developer"
            },
            "secondaryJobTitle": null,
            "reportsTo": {
                "id": "6b153a31-7017-47f3-ba01-4f8a9257b5f1",
                "firstName": "Thomas",
                "lastName": "Robinson",
                "email": "susan.miller33@yahoo.com"
            },
            "l2Manager": {
                "id": "c5e1a9ee-3753-4a32-aaa1-0a31c5d30c74",
                "firstName": "Michael",
                "lastName": "Johnson",
                "email": "paul.nguyen34@outlook.com"
            },
            "dottedLineManager": {
                "id": null,
                "firstName": null,
                "lastName": null,
                "email": null
            },
            "contingentType": {
                "id": "51E6875B-2E54-42E8-9794-87B675584F80",
                "name": "Contract"
            },
            "timeType": 1,
            "workerType": 2,
            "isPrivate": false,
            "isProfileComplete": false,
            "maritalStatus": 0,
            "marriageDate": null,
            "gender": 1,
            "joiningDate": "2019-04-01T00:00:00Z",
            "professionalSummary": null,
            "dateOfBirth": "1987-08-13T00:00:00Z",
            "resignationSubmittedDate": "2023-01-27T04:46:17.687Z",
            "exitDate": "2023-07-07T00:00:00Z",
            "employmentStatus": 1,
            "accountStatus": 0,
            "invitationStatus": 0,
            "exitStatus": 2,
            "exitType": 2,
            "exitReason": "Medical Condition",
            "personalEmail": null,
            "workPhone": null,
            "homePhone": null,
            "mobilePhone": "706-706-6506",
            "bloodGroup": 0,
            "attendanceNumber": "892374",
            "probationEndDate": "2019-10-01T00:00:00Z",
            "currentAddress": null,
            "permanentAddress": null,
            "relations": [
                {
                    "id": "9316a02c-11f0-4503-b28c-d86f03a03d94",
                    "relationType": 1,
                    "gender": 2,
                    "firstName": "Susan",
                    "lastName": "King",
                    "displayName": "Sandra Wright",
                    "email": "sarah.rodriguez57@yahoo.com",
                    "dateOfBirth": "1988-05-26T00:00:00Z",
                    "profession": null,
                    "mobile": null
                }
            ],
            "educationDetails": [],
            "experienceDetails": [],
            "customFields": [
                {
                    "id": "2f1f2bd4-368c-4b3e-bd8c-7d952c9e761b",
                    "title": "Custom Field",
                    "type": "MultiDropdown",
                    "value": null
                },
                {
                    "id": "c82399d3-db19-47a8-a213-542fc5629bf9",
                    "title": "[New Field]",
                    "type": "TextBox",
                    "value": null
                },
                {
                    "id": "39217c59-24a2-4dda-98e6-b90b0f69c27a",
                    "title": "ATTENDANCE NUMBER",
                    "type": "TextBox",
                    "value": null
                },
                {
                    "id": "f54573a9-33fb-4eae-8c64-5caabf39e12c",
                    "title": "NOTICE PERIOD",
                    "type": "TextArea",
                    "value": null
                },
                {
                    "id": "b7c9a7e0-cfb2-456f-ac7b-05a2a1514341",
                    "title": "multidrop",
                    "type": "MultiDropdown",
                    "value": null
                },
                {
                    "id": "6fa1ee1d-97cf-4745-ae28-46746fc8f232",
                    "title": "aasas",
                    "type": "TextBox",
                    "value": null
                }
            ],
            "groups": [
                {
                    "id": "693e8d73-1b0c-42d6-9d1b-9e6ccecbe58d",
                    "title": "Zero Corp Industries",
                    "groupType": 1
                },
                {
                    "id": "f5b7e125-d39c-4630-a332-6c97a265f953",
                    "title": "Development",
                    "groupType": 2
                },
                {
                    "id": "9fe494f8-dbf8-447e-9af0-c71370f4e94e",
                    "title": "Meghalaya",
                    "groupType": 3
                },
                {
                    "id": "d82fb4c5-7be1-4c25-8d39-8f057637a9a5",
                    "title": "Ashwadama IIT",
                    "groupType": 5
                },
                {
                    "id": "346d9fb9-df32-4f17-84ef-b728e014425d",
                    "title": "Viswas",
                    "groupType": 9
                }
            ],
            "leavePlanInfo": {
                "identifier": "6bf450ff-2c9b-42e4-9715-4a1a626a1857",
                "title": "Leave"
            },
            "bandInfo": null,
            "payGradeInfo": null,
            "shiftPolicyInfo": {
                "identifier": "e832b29d-9670-4c41-8929-35a8c5d99551",
                "title": "General Shift"
            },
            "weeklyOffPolicyInfo": {
                "identifier": "3d7e5863-5968-49da-be53-51623a8c47c8",
                "title": "General Weekly off's"
            },
            "captureSchemeInfo": {
                "identifier": "250df970-5c77-4fda-90cd-a5445b321aab",
                "title": "AWE"
            },
            "trackingPolicyInfo": {
                "identifier": "6781c33f-148d-4515-8e40-d00118beb486",
                "title": "21441"
            },
            "expensePolicyInfo": {
                "identifier": "9bdeaea2-4727-4453-a901-0b41d1714272",
                "title": "Sr. Policy"
            },
            "overtimePolicyInfo": null,
            "id": "fc65e4d7-923c-454a-902d-9a3c2b2f7df9"
        },
        {
            "employeeNumber": "5001",
            "firstName": "Nancy",
            "middleName": "",
            "lastName": "White",
            "displayName": "Christopher Hernandez",
            "email": "jennifer.thompson25@yahoo.com",
            "city": "San Antonio",
            "countryCode": "IN",
            "image": {
                "fileName": null,
                "thumbs": {}
            },
            "jobTitle": {
                "identifier": "99b581e2-3933-4534-bfd5-2e53aac4f4cb",
                "title": "Java Developer"
            },
            "secondaryJobTitle": null,
            "reportsTo": {
                "id": "6b153a31-7017-47f3-ba01-4f8a9257b5f1",
                "firstName": "Thomas",
                "lastName": "Robinson",
                "email": "susan.miller33@yahoo.com"
            },
            "l2Manager": {
                "id": "c5e1a9ee-3753-4a32-aaa1-0a31c5d30c74",
                "firstName": "Michael",
                "lastName": "Johnson",
                "email": "paul.nguyen34@outlook.com"
            },
            "dottedLineManager": {
                "id": "eb92ad5e-2d50-4d43-884d-d6f3d101c5a1",
                "firstName": "John",
                "lastName": "Perez",
                "email": "matthew.gonzalez44@gmail.com"
            },
            "contingentType": {
                "id": null,
                "name": null
            },
            "timeType": 1,
            "workerType": 1,
            "isPrivate": false,
            "isProfileComplete": true,
            "maritalStatus": 0,
            "marriageDate": null,
            "gender": 1,
            "joiningDate": "2022-03-04T00:00:00Z",
            "professionalSummary": null,
            "dateOfBirth": "2022-02-17T00:00:00Z",
            "resignationSubmittedDate": null,
            "exitDate": null,
            "employmentStatus": 0,
            "accountStatus": 0,
            "invitationStatus": 1,
            "exitStatus": 0,
            "exitType": 0,
            "exitReason": null,
            "personalEmail": null,
            "workPhone": null,
            "homePhone": null,
            "mobilePhone": "634-634-9634",
            "bloodGroup": 0,
            "attendanceNumber": "11111",
            "probationEndDate": "2022-05-04T00:00:00Z",
            "currentAddress": null,
            "permanentAddress": null,
            "relations": [],
            "educationDetails": [],
            "experienceDetails": [],
            "customFields": [
                {
                    "id": "2f1f2bd4-368c-4b3e-bd8c-7d952c9e761b",
                    "title": "Custom Field",
                    "type": "MultiDropdown",
                    "value": null
                },
                {
                    "id": "c82399d3-db19-47a8-a213-542fc5629bf9",
                    "title": "[New Field]",
                    "type": "TextBox",
                    "value": null
                },
                {
                    "id": "39217c59-24a2-4dda-98e6-b90b0f69c27a",
                    "title": "ATTENDANCE NUMBER",
                    "type": "TextBox",
                    "value": null
                },
                {
                    "id": "f54573a9-33fb-4eae-8c64-5caabf39e12c",
                    "title": "NOTICE PERIOD",
                    "type": "TextArea",
                    "value": null
                },
                {
                    "id": "b7c9a7e0-cfb2-456f-ac7b-05a2a1514341",
                    "title": "multidrop",
                    "type": "MultiDropdown",
                    "value": null
                },
                {
                    "id": "6fa1ee1d-97cf-4745-ae28-46746fc8f232",
                    "title": "aasas",
                    "type": "TextBox",
                    "value": null
                }
            ],
            "groups": [
                {
                    "id": "693e8d73-1b0c-42d6-9d1b-9e6ccecbe58d",
                    "title": "Zero Corp Industries",
                    "groupType": 1
                },
                {
                    "id": "f5b7e125-d39c-4630-a332-6c97a265f953",
                    "title": "Development",
                    "groupType": 2
                },
                {
                    "id": "d0af8396-68e7-4813-91ad-ef3640ada151",
                    "title": "Gujarat",
                    "groupType": 3
                },
                {
                    "id": "d5f8ae60-558e-44a1-a1b2-3bdaecf7c845",
                    "title": "Labour welfare fund",
                    "groupType": 5
                },
                {
                    "id": "346d9fb9-df32-4f17-84ef-b728e014425d",
                    "title": "Viswas",
                    "groupType": 9
                }
            ],
            "leavePlanInfo": {
                "identifier": "7402efb1-6da0-4ab1-91c7-e7ce73f3baa5",
                "title": "Decimal Leave Plan"
            },
            "bandInfo": null,
            "payGradeInfo": null,
            "shiftPolicyInfo": {
                "identifier": "85049d35-75d1-4802-b927-c17df50c7205",
                "title": "General 1 Shift"
            },
            "weeklyOffPolicyInfo": {
                "identifier": "3d7e5863-5968-49da-be53-51623a8c47c8",
                "title": "General Weekly off's"
            },
            "captureSchemeInfo": {
                "identifier": "39751b80-b9f3-4df0-a390-c81b0ef4628d",
                "title": "mm"
            },
            "trackingPolicyInfo": {
                "identifier": "4d637bd7-a635-4885-974d-f74f919773fd",
                "title": "Subhash"
            },
            "expensePolicyInfo": {
                "identifier": "9bdeaea2-4727-4453-a901-0b41d1714272",
                "title": "Sr. Policy"
            },
            "overtimePolicyInfo": null,
            "id": "7519874f-4015-4bc2-9082-7e1873f1c8cb"
        }
    ],
    "pageNumber": 1,
    "pageSize": 100,
    "firstPage": "https://api.samardash.com/mock/api/v1/hris/employees?pageNumber=1&pageSize=100",
    "lastPage": "https://api.samardash.com/mock/api/v1/hris/employees?pageNumber=5&pageSize=100",
    "totalPages": 5,
    "totalRecords": 417,
    "nextPage": "https://api.samardash.com/mock/api/v1/hris/employees?pageNumber=2&pageSize=100",
    "previousPage": null,
    "succeeded": true,
    "message": null,
    "errors": null
}